21
0
L P 
V R 
F V 
1
P F 
V V 
V U 
2
V P 
R F 
L P 
3
F V 
V P 
U L 
4
L V 
P L 
U V 
5
U V 
P V 
R F 
6
V P 
R F 
L P 
7
V V 
F P 
R U 
8
L R 
F V 
R V 
9
L L 
F V 
V P 
10
R P 
R P 
V V 
11
V L 
F V 
U V 
12
V U 
V L 
L P 
13
V V 
P R 
P L 
14
V R 
V U 
P P 
15
P V 
P V 
R R 
16
V R 
V P 
U F 
17
P U 
V V 
F V 
18
V V 
F P 
F P 
19
P F 
V V 
V U 
20
U F 
R P 
V V 
